…
``` r
id_query_rst <- mona_query('atrazine', 'name')
```

``` r
mona_getMeta(id_query_rst, var = 'category', value = 'mass spectrometry')
#> # A tibble: 173 x 11
#> # Groups:   id [173]
#>    id    `collision ener… `fragmentation … ionization `ionization ene…
#>    <chr> <chr>            <chr>            <chr>      <chr>           
#>  1 AU20… 10 eV            CID              ESI        <NA>            
#>  2 AU20… 20 eV            CID              ESI        <NA>            
#>  3 AU20… 30 eV            CID              ESI        <NA>            
#>  4 AU20… 40 eV            CID              ESI        <NA>            
#>  5 AU20… 10 eV            CID              ESI        <NA>            
#>  6 AU25… 10 eV            CID              ESI        <NA>            
#>  7 AU25… 20 eV            CID              ESI        <NA>            
#>  8 AU25… 30 eV            CID              ESI        <NA>            
#>  9 AU25… 40 eV            CID              ESI        <NA>            
#> 10 AU25… 50 eV            CID              ESI        <NA>            
#> # … with 163 more rows, and 6 more variables: `ionization mode` <chr>, `mass
#> #   accuracy_ppm` <dbl>, `mass error_Da` <dbl>, `ms level` <chr>, `precursor
#> #   type` <chr>, resolution <dbl>
```

``` r
mona_getMeta(id_query_rst, var = 'category', value = 'focused ion')
#> # A tibble: 160 x 4
#> # Groups:   id [160]
#>    id       `ion type` `precursor m/z` `precursor type`
#>    <chr>    <chr>                <dbl> <chr>           
#>  1 JP010417 [M]+*                  NA  <NA>            
#>  2 MSJ01072 [M]+*                 215. <NA>            
#>  3 AU202201 <NA>                  146. [M+H]+          
#>  4 AU202302 <NA>                  170. [M+H]+          
#>  5 AU202303 <NA>                  170. [M+H]+          
#>  6 AU202304 <NA>                  170. [M+H]+          
#>  7 AU202351 <NA>                  168. [M-H]-          
#>  8 AU253701 <NA>                  188. [M+H]+          
#>  9 AU253702 <NA>                  188. [M+H]+          
#> 10 AU253703 <NA>                  188. [M+H]+          
#> # … with 150 more rows
```

``` r
mona_getMeta(id_query_rst, var = 'category', value = 'chromatography')
#> # A tibble: 148 x 9
#> # Groups:   id [148]
#>    id    column `column tempera… `flow gradient` `flow rate` `injection temp…
#>    <chr> <chr>  <chr>            <chr>           <chr>       <chr>           
#>  1 AU20… Accla… <NA>             99/1 at 0-1 mi… 200 uL/min… <NA>            
#>  2 AU20… Accla… <NA>             99/1 at 0-1 mi… 200 uL/min… <NA>            
#>  3 AU20… Accla… <NA>             99/1 at 0-1 mi… 200 uL/min… <NA>            
#>  4 AU20… Accla… <NA>             99/1 at 0-1 mi… 200 uL/min… <NA>            
#>  5 AU20… Accla… <NA>             99/1 at 0-1 mi… 200 uL/min… <NA>            
#>  6 AU25… Accla… <NA>             99/1 at 0-1 mi… 200 uL/min… <NA>            
#>  7 AU25… Accla… <NA>             99/1 at 0-1 mi… 200 uL/min… <NA>            
#>  8 AU25… Accla… <NA>             99/1 at 0-1 mi… 200 uL/min… <NA>            
#>  9 AU25… Accla… <NA>             99/1 at 0-1 mi… 200 uL/min… <NA>            
#> 10 AU25… Accla… <NA>             99/1 at 0-1 mi… 200 uL/min… <NA>            
#> # … with 138 more rows, and 3 more variables: `retention time` <chr>, `SOLVENT
#> #   A` <chr>, `SOLVENT B` <chr>
```

``` r
mona_getMeta(id_query_rst, var = 'name', value = 'ionization')
#> # A tibble: 148 x 2
#> # Groups:   id [148]
#>    id       ionization
#>    <chr>    <chr>     
#>  1 AU202201 ESI       
#>  2 AU202302 ESI       
#>  3 AU202303 ESI       
#>  4 AU202304 ESI       
#>  5 AU202351 ESI       
#>  6 AU253701 ESI       
#>  7 AU253702 ESI       
#>  8 AU253703 ESI       
#>  9 AU253704 ESI       
#> 10 AU253705 ESI       
#> # … with 138 more rows
```

``` r
mona_getMeta(id_query_rst, var = 'name', value = 'ms level')
#> # A tibble: 179 x 2
#> # Groups:   id [179]
#>    id       `ms level`
#>    <chr>    <chr>     
#>  1 AU202201 MS2       
#>  2 AU202302 MS2       
#>  3 AU202303 MS2       
#>  4 AU202304 MS2       
#>  5 AU202351 MS2       
#>  6 AU253701 MS2       
#>  7 AU253702 MS2       
#>  8 AU253703 MS2       
#>  9 AU253704 MS2       
#> 10 AU253705 MS2       
#> # … with 169 more rows
```

``` r
mona_getMeta(id_query_rst, var = 'name', value = 'mass error')
#> # A tibble: 172 x 2
#> # Groups:   id [172]
#>    id       `mass error_Da`
#>    <chr>              <dbl>
#>  1 AU202201      0.00000119
#>  2 AU202302     -0.0000360 
#>  3 AU202303     -0.0000360 
#>  4 AU202304     -0.0000360 
#>  5 AU202351      0.0000160 
#>  6 AU253701     -0.0000490 
#>  7 AU253702     -0.0000490 
#>  8 AU253703     -0.0000490 
#>  9 AU253704     -0.0000490 
#> 10 AU253705     -0.0000490 
#> # … with 162 more rows
```
…
## Getting chemical data

``` r
mona_getChem(id_query_rst, var = 'inchi')
#> # A tibble: 181 x 2
#>    id              inchi                                                        
#>    <chr>           <chr>                                                        
#>  1 VF-NPL-QEHF000… InChI=1S/C8H14ClN5/c1-4-10-7-12-6(9)13-8(14-7)11-5(2)3/h5H,4…
#>  2 VF-NPL-LTQ0001… InChI=1S/C8H14ClN5/c1-4-10-7-12-6(9)13-8(14-7)11-5(2)3/h5H,4…
#>  3 MSJ01072        InChI=1S/C8H14ClN5/c1-4-10-7-12-6(9)13-8(14-7)11-5(2)3/h5H,4…
#>  4 EA028801        InChI=1S/C8H14ClN5/c1-4-10-7-12-6(9)13-8(14-7)11-5(2)3/h5H,4…
#>  5 SM841401        InChI=1S/C8H14ClN5/c1-4-10-7-12-6(9)13-8(14-7)11-5(2)3/h5H,4…
#>  6 JP010417        InChI=1S/C8H14ClN5/c1-4-10-7-12-6(9)13-8(14-7)11-5(2)3/h5H,4…
#>  7 UA002901        InChI=1S/C8H14ClN5/c1-4-10-7-12-6(9)13-8(14-7)11-5(2)3/h5H,4…
#>  8 VF-NPL-QEHF000… InChI=1S/C8H14ClN5/c1-4-10-7-12-6(9)13-8(14-7)11-5(2)3/h5H,4…
#>  9 EA028802        InChI=1S/C8H14ClN5/c1-4-10-7-12-6(9)13-8(14-7)11-5(2)3/h5H,4…
#> 10 VF-NPL-QEHF000… InChI=1S/C8H14ClN5/c1-4-10-7-12-6(9)13-8(14-7)11-5(2)3/h5H,4…
#> # … with 171 more rows
```
…
``` r
mona_getChem(id_query_rst, var = 'external id')
#> # A tibble: 161 x 8
#> # Groups:   id [161]
#>    id      `pubchem cid` cas   chebi kegg  chemspider `cas number` `pubchem sid`
#>    <chr>   <chr>         <chr> <chr> <chr> <chr>      <chr>        <chr>        
#>  1 MSJ010… 2256          <NA>  <NA>  <NA>  <NA>       <NA>         <NA>         
#>  2 EA0288… 2256          1912… 15930 C065… 2169       <NA>         <NA>         
#>  3 SM8414… 2256          1912… 15930 C065… 2169       <NA>         <NA>         
#>  4 UA0029… 2256          1912… <NA>  C065… 2169       <NA>         <NA>         
#>  5 EA0288… 2256          1912… 15930 C065… 2169       <NA>         <NA>         
#>  6 HMDB00… <NA>          <NA>  <NA>  <NA>  <NA>       1912-24-9    <NA>         
#>  7 UF4033… 2256          1912… 15930 C065… 2169       <NA>         <NA>         
#>  8 EA0288… 2256          1912… 15930 C065… 2169       <NA>         <NA>         
#>  9 EA0288… 2256          1912… 15930 C065… 2169       <NA>         <NA>         
#> 10 HMDB00… <NA>          <NA>  <NA>  <NA>  <NA>       1912-24-9    <NA>         
#> # … with 151 more rows
```
…
## Getting spectral data

Spectral data is pulled from query results into a list named by spectrum
ID.

``` r
mona_getSpec(slice(id_query_rst,1))
#> $`VF-NPL-QEHF000343`
#> # A tibble: 538 x 2
#>       mz intensity
#>    <dbl>     <dbl>
#>  1  51.3    0.0312
#>  2  51.7    0.0248
#>  3  52.6    0.0485
#>  4  53.6    0.0425
#>  5  54.2    0.0478
#>  6  54.3    0.0446
#>  7  54.5    0.0276
#>  8  55.0    0.0264
#>  9  55.2    0.0281
#> 10  56.0    0.0407
#> # … with 528 more rows
```
…
